<?xml version="1.0" encoding="UTF-8" standalone="no"?>
<!-- Created with Inkscape (http://www.inkscape.org/) -->

<svg
   xmlns:dc="http://purl.org/dc/elements/1.1/"
   xmlns:cc="http://creativecommons.org/ns#"
   xmlns:rdf="http://www.w3.org/1999/02/22-rdf-syntax-ns#"
   xmlns:svg="http://www.w3.org/2000/svg"
   xmlns="http://www.w3.org/2000/svg"
   xmlns:sodipodi="http://sodipodi.sourceforge.net/DTD/sodipodi-0.dtd"
   xmlns:inkscape="http://www.inkscape.org/namespaces/inkscape"
   width="744.09448819"
   height="1052.3622047"
   id="svg6480"
   version="1.1"
   inkscape:version="0.48.2 r9819"
   sodipodi:docname="New document 1">
  <defs
     id="defs6482" />
  <sodipodi:namedview
     id="base"
     pagecolor="#ffffff"
     bordercolor="#666666"
     borderopacity="1.0"
     inkscape:pageopacity="0.0"
     inkscape:pageshadow="2"
     inkscape:zoom="0.98994949"
     inkscape:cx="316.25429"
     inkscape:cy="574.00404"
     inkscape:document-units="px"
     inkscape:current-layer="layer1"
     showgrid="false"
     inkscape:window-width="1618"
     inkscape:window-height="1028"
     inkscape:window-x="1672"
     inkscape:window-y="-8"
     inkscape:window-maximized="1" />
  <metadata
     id="metadata6485">
    <rdf:RDF>
      <cc:Work
         rdf:about="">
        <dc:format>image/svg+xml</dc:format>
        <dc:type
           rdf:resource="http://purl.org/dc/dcmitype/StillImage" />
        <dc:title></dc:title>
      </cc:Work>
    </rdf:RDF>
  </metadata>
  <g
     inkscape:label="Layer 1"
     inkscape:groupmode="layer"
     id="layer1">
    <rect
       style="opacity:0.8;fill:#000000;fill-opacity:1;fill-rule:nonzero;stroke:#0099cc;stroke-width:7;stroke-linecap:butt;stroke-linejoin:miter;stroke-miterlimit:4;stroke-opacity:1;stroke-dasharray:none"
       id="rect7434"
       width="527.29962"
       height="131.31982"
       x="137.38074"
       y="315.96097"
       rx="19.697973"
       ry="65.154839" />
    <g
       transform="translate(-2.3316133,-1052.4664)"
       id="g6488">
      <path
         d="m 75.859,1417.845 6.42,5.879 c 0.207,0.185 0.213,0.496 0.02,0.692 l -3.504,3.502 c -0.195,0.195 -0.508,0.188 -0.693,-0.017 l -5.768,-6.36 3.525,-3.696 z m -12.579,-6.327 c 0.277,-0.013 0.664,0.136 0.861,0.33 l 2.997,2.956 1.918,-1.797 -3.056,-3.015 c -0.197,-0.193 -0.348,-0.577 -0.336,-0.854 l 0.023,-0.518 c 0.012,-0.277 -0.166,-0.627 -0.398,-0.776 l -2.84,-1.841 c -0.23,-0.151 -0.58,-0.114 -0.775,0.081 l -1.438,1.437 c -0.195,0.195 -0.232,0.546 -0.082,0.777 l 1.832,2.842 c 0.15,0.232 0.5,0.412 0.777,0.399 l 0.517,-0.021 z m 20.298,-1.492 -4.828,2.432 -2.781,-4.458 4.975,-2.657 c -1.933,-1.376 -4.003,-1.227 -5.885,-0.168 -2.468,1.39 -3.556,4.263 -2.712,6.843 l -11.518,11.518 c -0.389,0.389 -0.389,1.025 0,1.414 l 2.122,2.121 c 0.389,0.389 1.025,0.389 1.414,0 l 1.415,-1.414 10.039,-10.04 c 1.534,0.547 3.301,0.428 4.861,-0.448 1.881,-1.059 3.071,-2.773 2.898,-5.143 z"
         id="path6490"
         inkscape:connector-curvature="0" />
    </g>
    <g
       transform="translate(-242.00339,-1140.8297)"
       id="g6513">
      <path
         d="m 322,1602 v 15 l -1,1 h -21 c -0.55,0 -1,-0.45 -1,-1 v -15 l 1,-1 h 7 0.003 c 0,0.011 -0.003,0.021 -0.003,0.031 V 1606 c 0,1.103 0.897,2 2,2 h 3 c 1.103,0 2,-0.897 2,-2 v -4.969 c 0,-0.011 -0.003,-0.021 -0.003,-0.031 h 0.003 7 c 0.55,0 1,0.45 1,1 z m -13,-3 h -7 l -1,1 h 7 l 1,-1 z m 7,0 h -1 l -1,1 -1,1 h -0.006 c 0,0.011 0.006,0.021 0.006,0.031 V 1606 c 0,0.55 -0.45,1 -1,1 h -3 c -0.55,0 -1,-0.45 -1,-1 v -4.969 c 0,-0.011 0.006,-0.021 0.006,-0.031 H 308 c 0,0 0.484,-0.467 1.027,-1 H 309 l 1,-1 h 0.031 c 0.22,-0.225 0.396,-0.41 0.469,-0.5 0.438,-0.5 1.031,-0.5 1.031,-0.5 h 0.469 3 c 0.553,0 1,0.447 1,1 z m -4.045,5.5 c 0,-0.8 -0.655,-1.455 -1.455,-1.455 -0.8,0 -1.455,0.655 -1.455,1.455 0,0.8 0.655,1.455 1.455,1.455 0.8,0 1.455,-0.655 1.455,-1.455 z m 10.561,-5.5 H 316 l -1,1 h 7 c 0.55,0 1,0.45 1,1 v 15 l 1,-1 v -14.5 c 0,-0.953 -0.734,-1.5 -1.484,-1.5 z"
         id="path6515"
         inkscape:connector-curvature="0" />
    </g>
    <g
       transform="translate(-99.933518,-1193.1165)"
       id="g6538">
      <path
         d="m 181.985,1604.379 -6.364,-6.364 c -1.166,-1.167 -3.076,-1.167 -4.242,0 L 165.394,1604 H 169 c 1.65,0 3,1.35 3,3 v 3.51 c 0.322,-0.487 0.874,-0.81 1.5,-0.81 0.992,0 1.8,0.808 1.8,1.8 0,0.992 -0.808,1.8 -1.8,1.8 -0.626,0 -1.178,-0.322 -1.5,-0.81 v 2.958 c 1.146,0.662 2.644,0.516 3.621,-0.463 l 6.364,-6.364 c 1.167,-1.166 1.167,-3.076 0,-4.242 z M 173.5,1603.3 c -0.992,0 -1.8,-0.808 -1.8,-1.8 0,-0.992 0.808,-1.8 1.8,-1.8 0.992,0 1.8,0.808 1.8,1.8 0,0.992 -0.808,1.8 -1.8,1.8 z m 5,5 c -0.992,0 -1.8,-0.808 -1.8,-1.8 0,-0.992 0.808,-1.8 1.8,-1.8 0.992,0 1.8,0.808 1.8,1.8 0,0.992 -0.808,1.8 -1.8,1.8 z M 168,1605 h -9 c -1.65,0 -3,1.35 -3,3 v 9 c 0,1.65 1.35,3 3,3 h 9 c 1.65,0 3,-1.35 3,-3 v -9 c 0,-1.65 -1.35,-3 -3,-3 z m -8.5,13.3 c -0.993,0 -1.8,-0.808 -1.8,-1.8 0,-0.992 0.807,-1.8 1.8,-1.8 0.993,0 1.8,0.808 1.8,1.8 0,0.992 -0.807,1.8 -1.8,1.8 z m 0,-8 c -0.993,0 -1.8,-0.808 -1.8,-1.8 0,-0.992 0.807,-1.8 1.8,-1.8 0.993,0 1.8,0.808 1.8,1.8 0,0.992 -0.807,1.8 -1.8,1.8 z m 4,4 c -0.993,0 -1.8,-0.808 -1.8,-1.8 0,-0.992 0.807,-1.8 1.8,-1.8 0.993,0 1.8,0.808 1.8,1.8 0,0.992 -0.807,1.8 -1.8,1.8 z m 4,4 c -0.993,0 -1.8,-0.808 -1.8,-1.8 0,-0.992 0.807,-1.8 1.8,-1.8 0.993,0 1.8,0.808 1.8,1.8 0,0.992 -0.807,1.8 -1.8,1.8 z m 0,-8 c -0.993,0 -1.8,-0.808 -1.8,-1.8 0,-0.992 0.807,-1.8 1.8,-1.8 0.993,0 1.8,0.808 1.8,1.8 0,0.992 -0.807,1.8 -1.8,1.8 z"
         id="path6540"
         inkscape:connector-curvature="0" />
    </g>
    <g
       transform="translate(-50.621331,-609.11912)"
       id="g6563">
      <path
         d="m 131.5,1135.503 c -1.938,-4.61 -8.495,-4.528 -11.512,-4.505 l -0.006,5.002 c 0,0.275 -0.181,0.367 -0.402,0.203 l -10.678,-7.91 c -0.222,-0.164 -0.221,-0.431 0,-0.594 l 10.695,-7.889 c 0.221,-0.164 0.402,-0.072 0.402,0.203 l -0.005,4.514 c 2.242,0.176 11.367,1.473 11.506,10.976 z"
         id="path6565"
         inkscape:connector-curvature="0" />
    </g>
    <g
       transform="translate(-338.50583,402.6069)"
       id="g6616">
      <path
         d="m 419.602,176.755 -5.878,-5.879 c 0.956,-1.481 1.521,-3.24 1.521,-5.132 0,-5.235 -4.262,-9.494 -9.496,-9.494 -5.236,0 -9.494,4.259 -9.494,9.494 0,5.236 4.258,9.495 9.494,9.495 1.891,0 3.649,-0.562 5.132,-1.519 l 5.878,5.878 c 0.195,0.196 0.518,0.196 0.712,0 l 2.132,-2.132 c 0.196,-0.195 0.196,-0.515 -0.001,-0.711 z M 399.27,165.744 c 0,-3.571 2.906,-6.479 6.479,-6.479 3.573,0 6.479,2.907 6.479,6.479 0,3.573 -2.905,6.479 -6.479,6.479 -3.573,10e-4 -6.479,-2.906 -6.479,-6.479 z"
         id="path6618"
         inkscape:connector-curvature="0" />
    </g>
    <path
       d="m 327.55155,384.0073 9.74624,8.92494 c 0.31425,0.28084 0.32336,0.75298 0.0304,1.05052 l -5.31944,5.31641 c -0.29603,0.29603 -0.7712,0.2854 -1.05205,-0.0258 l -8.75643,-9.65515 5.35132,-5.61091 z m -19.09624,-9.60506 c 0.42052,-0.0197 1.00802,0.20647 1.30709,0.50098 l 4.54976,4.48752 2.91173,-2.72804 -4.63933,-4.57708 c -0.29907,-0.293 -0.5283,-0.87595 -0.51009,-1.29647 l 0.0349,-0.78637 c 0.0182,-0.42052 -0.25201,-0.95186 -0.60421,-1.17805 l -4.31141,-2.79484 c -0.34917,-0.22923 -0.88051,-0.17306 -1.17654,0.12297 l -2.18303,2.18152 c -0.29603,0.29603 -0.3522,0.82888 -0.12449,1.17957 l 2.78117,4.31445 c 0.22772,0.3522 0.75906,0.62546 1.17957,0.60572 l 0.78486,-0.0319 z m 30.8145,-2.26501 -7.32941,3.69203 -4.22185,-6.76771 7.55257,-4.0336 c -2.9345,-2.08892 -6.07698,-1.86272 -8.93405,-0.25505 -3.74668,2.11017 -5.39838,6.47169 -4.1171,10.3884 l -17.48553,17.48553 c -0.59055,0.59054 -0.59055,1.55606 0,2.1466 l 3.22141,3.2199 c 0.59055,0.59055 1.55606,0.59055 2.1466,0 l 2.14812,-2.1466 15.24026,-15.24177 c 2.32877,0.8304 5.01127,0.64975 7.37951,-0.68011 2.85556,-1.60768 4.6621,-4.20971 4.39947,-7.80762 z"
       id="path6643"
       inkscape:connector-curvature="0"
       style="fill:#ffffff;fill-opacity:1;opacity:0.8"
       inkscape:export-filename="C:\Users\David\inflatableapps\life-dial\res\drawable-hdpi\settings.png"
       inkscape:export-xdpi="89.999542"
       inkscape:export-ydpi="89.999542" />
    <path
       d="m 408.17607,378.92773 -8.52948,-8.52948 c -1.56275,-1.56409 -4.12267,-1.56409 -5.68543,0 l -8.02151,8.02152 h 4.83301 c 2.21145,0 4.02081,1.80937 4.02081,4.02081 v 4.70435 c 0.43157,-0.65271 1.1714,-1.08562 2.01041,-1.08562 1.32955,0 2.41248,1.08294 2.41248,2.41249 0,1.32955 -1.08293,2.41249 -2.41248,2.41249 -0.83901,0 -1.57884,-0.43157 -2.01041,-1.08562 v 3.96452 c 1.53595,0.88726 3.54368,0.69158 4.85312,-0.62055 l 8.52948,-8.52948 c 1.5641,-1.56275 1.5641,-4.12267 0,-5.68543 z m -11.37219,-1.44615 c -1.32955,0 -2.41249,-1.08294 -2.41249,-2.41248 0,-1.32955 1.08294,-2.41249 2.41249,-2.41249 1.32955,0 2.41248,1.08294 2.41248,2.41249 0,1.32954 -1.08293,2.41248 -2.41248,2.41248 z m 6.70135,6.70136 c -1.32955,0 -2.41249,-1.08294 -2.41249,-2.41249 0,-1.32955 1.08294,-2.41249 2.41249,-2.41249 1.32955,0 2.41249,1.08294 2.41249,2.41249 0,1.32955 -1.08294,2.41249 -2.41249,2.41249 z m -14.07284,-4.4229 h -12.06243 c -2.21145,0 -4.02082,1.80937 -4.02082,4.02081 v 12.06244 c 0,2.21144 1.80937,4.02081 4.02082,4.02081 h 12.06243 c 2.21145,0 4.02081,-1.80937 4.02081,-4.02081 v -12.06244 c 0,-2.21144 -1.80936,-4.02081 -4.02081,-4.02081 z m -11.3923,17.8256 c -1.33089,0 -2.41249,-1.08294 -2.41249,-2.41249 0,-1.32955 1.0816,-2.41248 2.41249,-2.41248 1.33089,0 2.41249,1.08293 2.41249,2.41248 0,1.32955 -1.0816,2.41249 -2.41249,2.41249 z m 0,-10.72216 c -1.33089,0 -2.41249,-1.08294 -2.41249,-2.41249 0,-1.32955 1.0816,-2.41249 2.41249,-2.41249 1.33089,0 2.41249,1.08294 2.41249,2.41249 0,1.32955 -1.0816,2.41249 -2.41249,2.41249 z m 5.36108,5.36108 c -1.33089,0 -2.41248,-1.08294 -2.41248,-2.41249 0,-1.32955 1.08159,-2.41249 2.41248,-2.41249 1.33089,0 2.41249,1.08294 2.41249,2.41249 0,1.32955 -1.0816,2.41249 -2.41249,2.41249 z m 5.36108,5.36108 c -1.33088,0 -2.41248,-1.08294 -2.41248,-2.41249 0,-1.32955 1.0816,-2.41248 2.41248,-2.41248 1.33089,0 2.41249,1.08293 2.41249,2.41248 0,1.32955 -1.0816,2.41249 -2.41249,2.41249 z m 0,-10.72216 c -1.33088,0 -2.41248,-1.08294 -2.41248,-2.41249 0,-1.32955 1.0816,-2.41249 2.41248,-2.41249 1.33089,0 2.41249,1.08294 2.41249,2.41249 0,1.32955 -1.0816,2.41249 -2.41249,2.41249 z"
       id="path6647"
       inkscape:connector-curvature="0"
       style="opacity:0.8;fill:#ffffff;fill-opacity:1"
       inkscape:export-filename="C:\Users\David\inflatableapps\life-dial\res\drawable-hdpi\roll.png"
       inkscape:export-xdpi="89.999542"
       inkscape:export-ydpi="89.999542" />
    <path
       d="m 474.36556,372.87419 v 21.6 l -1.44,1.44 h -30.24 c -0.792,0 -1.44,-0.648 -1.44,-1.44 v -21.6 l 1.44,-1.44 h 10.08 0.004 c 0,0.0158 -0.004,0.0302 -0.004,0.0446 v 7.15535 c 0,1.58832 1.29168,2.88 2.88,2.88 h 4.32 c 1.58832,0 2.88,-1.29168 2.88,-2.88 v -7.15535 c 0,-0.0158 -0.004,-0.0302 -0.004,-0.0446 h 0.004 10.08 c 0.792,0 1.44,0.648 1.44,1.44 z m -18.72,-4.32 h -10.08 l -1.44,1.44 h 10.08 l 1.44,-1.44 z m 10.08,0 h -1.44 l -1.44,1.44 -1.44,1.44 h -0.009 c 0,0.0158 0.009,0.0302 0.009,0.0446 v 7.15535 c 0,0.792 -0.648,1.44 -1.44,1.44 h -4.32 c -0.792,0 -1.44,-0.648 -1.44,-1.44 v -7.15535 c 0,-0.0158 0.009,-0.0302 0.009,-0.0446 h -0.009 c 0,0 0.69696,-0.67248 1.47888,-1.44 h -0.0389 l 1.44,-1.44 h 0.0446 c 0.3168,-0.324 0.57024,-0.5904 0.67536,-0.72001 0.63072,-0.72 1.48464,-0.72 1.48464,-0.72 h 0.67536 4.32 c 0.79632,0 1.44,0.64368 1.44,1.44 z m -5.8248,7.92 c 0,-1.152 -0.9432,-2.0952 -2.0952,-2.0952 -1.152,0 -2.0952,0.9432 -2.0952,2.0952 0,1.152 0.9432,2.0952 2.0952,2.0952 1.152,0 2.0952,-0.9432 2.0952,-2.0952 z m 15.20784,-7.92 h -9.38304 l -1.44,1.44 h 10.08 c 0.792,0 1.44,0.648 1.44,1.44 v 21.6 l 1.44,-1.44 v -20.88 c 0,-1.37232 -1.05696,-2.16 -2.13696,-2.16 z"
       id="path6651"
       inkscape:connector-curvature="0"
       style="fill:#ffffff;fill-opacity:1;opacity:0.8"
       inkscape:export-filename="C:\Users\David\inflatableapps\life-dial\res\drawable-hdpi\buy.png"
       inkscape:export-xdpi="89.999542"
       inkscape:export-ydpi="89.999542" />
    <path
       d="m 546.15172,393.36942 c -3.06482,-7.29042 -13.43429,-7.16074 -18.20548,-7.12437 l -0.009,7.91035 c 0,0.43489 -0.28624,0.58038 -0.63574,0.32103 l -16.88657,-12.50916 c -0.35108,-0.25936 -0.3495,-0.6816 0,-0.93938 l 16.91346,-12.47595 c 0.34949,-0.25934 0.63573,-0.11386 0.63573,0.32103 l -0.008,7.13861 c 3.54557,0.27834 17.97617,2.32946 18.19599,17.35784 z"
       id="path6655"
       inkscape:connector-curvature="0"
       style="fill:#ffffff;fill-opacity:1;opacity:0.8"
       inkscape:export-filename="C:\Users\David\inflatableapps\life-dial\res\drawable-hdpi\reset.png"
       inkscape:export-xdpi="89.999542"
       inkscape:export-ydpi="89.999542" />
    <path
       d="m 270.29927,394.93285 -9.00656,-9.00809 c 1.46483,-2.26926 2.33055,-4.96449 2.33055,-7.8635 0,-8.02133 -6.53044,-14.54717 -14.55023,-14.54717 -8.02286,0 -14.54718,6.52584 -14.54718,14.54717 0,8.02285 6.52432,14.5487 14.54718,14.5487 2.89748,0 5.59117,-0.86112 7.8635,-2.32748 l 9.00656,9.00656 c 0.29879,0.30032 0.7937,0.30032 1.09096,0 l 3.26675,-3.26676 c 0.30032,-0.29879 0.30032,-0.78911 -0.002,-1.08943 z m -31.15368,-16.87159 c 0,-5.47166 4.45271,-9.92744 9.92744,-9.92744 5.47472,0 9.92744,4.45424 9.92744,9.92744 0,5.47472 -4.45119,9.92744 -9.92744,9.92744 -5.47473,0.002 -9.92744,-4.45272 -9.92744,-9.92744 z"
       id="path6659"
       inkscape:connector-curvature="0"
       style="fill:#ffffff;fill-opacity:1;opacity:0.8"
       inkscape:export-filename="C:\Users\David\inflatableapps\life-dial\res\drawable-hdpi\search.png"
       inkscape:export-xdpi="89.999542"
       inkscape:export-ydpi="89.999542" />
  </g>
</svg>
